…
``` r
age_based = 
  mtp_data %>% 
  filter(sex == "female") %>% 
  count(age) %>% 
  group_by(age > "17" & age < "31", age > "30" & age < "41") %>% 
  summarise(sum = sum(n))

mtp_data %>% 
  filter(sex == "male") %>% 
  count(age)
```

    ## # A tibble: 67 x 2
    ##      age     n
    ##    <dbl> <int>
    ##  1    18    11
    ##  2    19    18
    ##  3    20    11
    ##  4    21    12
    ##  5    22    15
    ##  6    23    11
    ##  7    24    12
    ##  8    25     9
    ##  9    26    11
    ## 10    27    10
    ## # … with 57 more rows

``` r
mtp_data %>% 
  count(age)
```

    ## # A tibble: 72 x 2
    ##      age     n
    ##    <dbl> <int>
    ##  1    17     1
    ##  2    18    22
    ##  3    19    33
    ##  4    20    26
    ##  5    21    22
    ##  6    22    29
    ##  7    23    21
    ##  8    24    21
    ##  9    25    21
    ## 10    26    22
    ## # … with 62 more rows
…
